Introduction
…
After carefully inspection, variable with over 50% missing values were decided to be removed from the data set.

#Removes variables with missing values over 50%
lcd_2012_2014 <- lending_club_data_2012_2014 %>%
  select(where(~mean(is.na(.))< 0.5))

#looking at unique values for each variables
lcd_2012_2014 %>%
  summarise_all(n_distinct) %>%
  t() %>% as.data.frame() %>%
  rownames_to_column("column") %>%
  as_tibble() %>%
  arrange(desc(V1))

# A tibble: 93 × 2
   column               V1
   <chr>             <int>
 1 url               10000
 2 total_pymnt        9983
 3 total_pymnt_inv    9662
 4 total_rec_int      9514
 5 total_bal_ex_mort  9320
 6 last_pymnt_amnt    9199
 7 tot_cur_bal        9173
 8 tot_hi_cred_lim    8748
 9 revol_bal          8569
10 avg_cur_bal        7713
# … with 83 more rows
…
